{
  "project_info": {
    "project_number": "955028852804",
    "firebase_url": "https://c3chat-782d3.firebaseio.com",
    "project_id": "c3chat-782d3",
    "storage_bucket": "c3chat-782d3.appspot.com"
  },
  "client": [
    {
      "client_info": {
        "mobilesdk_app_id": "1:955028852804:android:044f0dd782b12ea8",
        "android_client_info": {
          "package_name": "com.c3.aaron.c3chat"
        }
      },
      "oauth_client": [
        {
          "client_id": "955028852804-l90mjqft94v1ckv77odnsaoitqhl4757.apps.googleusercontent.com",
          "client_type": 1,
          "android_info": {
            "package_name": "com.c3.aaron.c3chat",
            "certificate_hash": "a928252811d920b43d05c5985212459b490534ef"
          }
        },
        {
          "client_id": "955028852804-v6us1b3c3lk27fk126vnijvos9e1j8oh.apps.googleusercontent.com",
          "client_type": 3
        }
      ],
      "api_key": [
        {
          "current_key": "AIzaSyD1IM6-pPgDI2p891qiHm3NU9gy-lTLwIY"
        }
      ],
      "services": {
        "analytics_service": {
          "status": 1
        },
        "appinvite_service": {
          "status": 2,
          "other_platform_oauth_client": [
            {
              "client_id": "955028852804-v6us1b3c3lk27fk126vnijvos9e1j8oh.apps.googleusercontent.com",
              "client_type": 3
            }
          ]
        },
        "ads_service": {
          "status": 2
        }
      }
    },
    {
      "client_info": {
        "mobilesdk_app_id": "1:955028852804:android:941893073c173e27",
        "android_client_info": {
          "package_name": "com.example.arvin.c3dispatch"
        }
      },
      "oauth_client": [
        {
          "client_id": "955028852804-bcir0v935b81sjuo232tuill4rqni3t0.apps.googleusercontent.com",
          "client_type": 1,
          "android_info": {
            "package_name": "com.example.arvin.c3dispatch",
            "certificate_hash": "a928252811d920b43d05c5985212459b490534ef"
          }
        },
        {
          "client_id": "955028852804-qjtag6aampp3kc3vj1ga555nfh9ho6aq.apps.googleusercontent.com",
          "client_type": 1,
          "android_info": {
            "package_name": "com.example.arvin.c3dispatch",
            "certificate_hash": "ec118ef1f69e44ea60cc1602e23131d60fb83fa1"
          }
        },
        {
          "client_id": "955028852804-v6us1b3c3lk27fk126vnijvos9e1j8oh.apps.googleusercontent.com",
          "client_type": 3
        }
      ],
      "api_key": [
        {
          "current_key": "AIzaSyD1IM6-pPgDI2p891qiHm3NU9gy-lTLwIY"
        }
      ],
      "services": {
        "analytics_service": {
          "status": 1
        },
        "appinvite_service": {
          "status": 2,
          "other_platform_oauth_client": [
            {
              "client_id": "955028852804-v6us1b3c3lk27fk126vnijvos9e1j8oh.apps.googleusercontent.com",
              "client_type": 3
            }
          ]
        },
        "ads_service": {
          "status": 2
        }
      }
    }
  ],
  "configuration_version": "1"
}